module project_user_registration

go 1.22.0

require (
	github.com/gin-gonic/gin v1.10.0
	github.com/go-ozzo/ozzo-validation/v4 v4.3.0
	github.com/joho/godotenv v1.5.1
	github.com/joomcode/errorx v1.1.1
	github.com/lib/pq v1.10.9
	golang.org/x/crypto v0.24.0
)

require (
	github.com/DATA-DOG/go-txdb v0.2.0 // indirect
	github.com/KyleBanks/depth v1.2.1 // indirect
	github.com/PuerkitoBio/purell v1.2.1 // indirect
	github.com/PuerkitoBio/urlesc v0.0.0-20170810143723-de5bf2ad4578 // indirect
	github.com/asaskevich/govalidator v0.0.0-20200108200545-475eaeb16496 // indirect
	github.com/bytedance/sonic v1.11.9 // indirect
	github.com/bytedance/sonic/loader v0.1.1 // indirect
	github.com/cespare/xxhash/v2 v2.2.0 // indirect
	github.com/cloudwego/base64x v0.1.4 // indirect
	github.com/cloudwego/iasm v0.2.0 // indirect
	github.com/cucumber/gherkin/go/v26 v26.2.0 // indirect
	github.com/cucumber/godog v0.14.1 // indirect
	github.com/cucumber/messages/go/v21 v21.0.1 // indirect
	github.com/dgryski/go-rendezvous v0.0.0-20200823014737-9f7001d12a5f // indirect
	github.com/gabriel-vasile/mimetype v1.4.4 // indirect
	github.com/gin-contrib/sse v0.1.0 // indirect
	github.com/go-openapi/jsonpointer v0.21.0 // indirect
	github.com/go-openapi/jsonreference v0.21.0 // indirect
	github.com/go-openapi/spec v0.21.0 // indirect
	github.com/go-openapi/swag v0.23.0 // indirect
	github.com/go-playground/locales v0.14.1 // indirect
	github.com/go-playground/universal-translator v0.18.1 // indirect
	github.com/go-playground/validator/v10 v10.22.0 // indirect
	github.com/goccy/go-json v0.10.3 // indirect
	github.com/gofrs/uuid v4.3.1+incompatible // indirect
	github.com/golang-jwt/jwt/v5 v5.2.1 // indirect
	github.com/hashicorp/go-immutable-radix v1.3.1 // indirect
	github.com/hashicorp/go-memdb v1.3.4 // indirect
	github.com/hashicorp/golang-lru v0.5.4 // indirect
	github.com/josharian/intern v1.0.0 // indirect
	github.com/json-iterator/go v1.1.12 // indirect
	github.com/klauspost/cpuid/v2 v2.2.8 // indirect
	github.com/leodido/go-urn v1.4.0 // indirect
	github.com/mailru/easyjson v0.7.7 // indirect
	github.com/mattn/go-isatty v0.0.20 // indirect
	github.com/modern-go/concurrent v0.0.0-20180306012644-bacd9c7ef1dd // indirect
	github.com/modern-go/reflect2 v1.0.2 // indirect
	github.com/pelletier/go-toml/v2 v2.2.2 // indirect
	github.com/redis/go-redis/v9 v9.5.3 // indirect
	github.com/spf13/pflag v1.0.5 // indirect
	github.com/swaggo/files v1.0.1 // indirect
	github.com/swaggo/gin-swagger v1.6.0 // indirect
	github.com/swaggo/swag v1.16.3 // indirect
	github.com/twitchyliquid64/golang-asm v0.15.1 // indirect
	github.com/ugorji/go/codec v1.2.12 // indirect
	go.uber.org/multierr v1.11.0 // indirect
	go.uber.org/zap v1.27.0 // indirect
	golang.org/x/arch v0.8.0 // indirect
	golang.org/x/net v0.26.0 // indirect
	golang.org/x/sys v0.21.0 // indirect
	golang.org/x/text v0.16.0 // indirect
	golang.org/x/tools v0.22.0 // indirect
	google.golang.org/protobuf v1.34.2 // indirect
	gopkg.in/yaml.v2 v2.4.0 // indirect
	gopkg.in/yaml.v3 v3.0.1 // indirect
)
